<svg width="40" height="40" viewBox="0 0 40 40" fill="none" xmlns="http://www.w3.org/2000/svg">
<path d="M20 6.66675C20.9204 6.66675 21.6666 7.41294 21.6666 8.33341V18.3334H31.6666C32.5871 18.3334 33.3333 19.0796 33.3333 20.0001C33.3333 20.9206 32.5871 21.6668 31.6666 21.6668H21.6666V31.6667C21.6666 32.5872 20.9204 33.3334 20 33.3334C19.0795 33.3334 18.3333 32.5872 18.3333 31.6667V21.6668H8.33329C7.41282 21.6668 6.66663 20.9206 6.66663 20.0001C6.66663 19.0796 7.41282 18.3334 8.33329 18.3334H18.3333V8.33341C18.3333 7.41294 19.0795 6.66675 20 6.66675Z" fill="#49BA88"/>
</svg>
